{
  "compilerOptions": {
    "lib": ["es2023"],
    "module": "node16",
    "target": "es2023",
    "esModuleInterop": true,
    "moduleResolution": "node16",
    "skipLibCheck": true,
    "checkJs": true
  }
}
